Wandernde Kasusmorpheme
…
# ggsave("figures/wegen_s_s_los.png") 

Hochfrequente Lexeme

Welche Lexeme sind hochfrequent?

w$logFreq <- log1p(w$Freq)

w %>% filter(Number=="sg" & Gender %in% c("m", "n") & klasse=="nicht_schwach" & position == "post" & logFreq > 13.883) %>% group_by(lemma) %>% summarise(
  n = n()
) %>% arrange(desc(n))

# A tibble: 62 × 2
   lemma         n
   <chr>     <int>
 1 Geld        132
 2 Name         14
 3 Spaß         12
 4 Inhalt        8
 5 Preis         8
 6 Vorteil       7
 7 Erfolg        6
 8 Spiel         6
 9 Alter         5
10 Interesse     5
# ℹ 52 more rows
…
